<svg xmlns="http://www.w3.org/2000/svg" width="32" height="32" viewBox="0 0 32 32">
  <rect width="32" height="32" fill="#F1F1F1"/>
  <rect width="32" height="1" fill="#F1F1F1" fill-opacity="0.4"/>
  <g fill="#212121" opacity="0.87">
    <circle cx="16" cy="16" r="12" opacity="0.2"/>
    <path d="m22 14-1.41-1.41-4.59 4.59-4.59-4.59-1.41 1.41l6 6z"/>
  </g>
</svg>
