<svg xmlns="http://www.w3.org/2000/svg" width="2" height="32" viewBox="0 0 2 32">
  <rect width="2" height="32" fill="#F1F1F1"/>
  <rect width="2" height="1" fill="#F1F1F1" fill-opacity="0.4"/>
</svg>
