<svg xmlns="http://www.w3.org/2000/svg" width="36" height="36" viewBox="0 0 36 36">
  <circle cx="18" cy="18" r="18" fill="#D93025"/>
  <circle cx="18" cy="18" r="18" fill="#F1F1F1" opacity="0"/>
  <path d="M23 14.41L21.59 13 18 16.59 14.41 13 13 14.41 16.59 18 13 21.59 14.41 23 18 19.41 21.59 23 23 21.59 19.41 18z" fill="#F1F1F1"/>
</svg>
