<svg xmlns="http://www.w3.org/2000/svg" width="32" height="32" viewBox="0 0 32 32">
  <rect width="32" height="32" fill="#263033"/>
  <rect width="32" height="1" fill="#fafafa" fill-opacity="0.1"/>
  <g fill="#fafafa">
    <circle cx="16" cy="16" r="12" opacity="0.08"/>
    <path d="m12 12v8h8v-8zm2 2h4v4h-4z"/>
  </g>
</svg>
